Football World Cup Datathon - Part 2: Data Aquisition
…
It seems promising at first glance but there are missing FIFA rankings which shouldn’t happen.

matched <- dat %>%
  group_by(team_1) %>%
  summarise(match = sum(!is.na(team_1_fifa)),
            no_match = sum(is.na(team_1_fifa))) %>%
  mutate(perc = match/(match + no_match)) %>%
  arrange(perc)

matched %>%
  filter(perc == 0) %>%
  arrange(desc(no_match))

## # A tibble: 30 x 4
##    team_1             match no_match  perc
##    <chr>              <int>    <int> <dbl>
##  1 China                  0      140    0.
##  2 Ireland                0      122    0.
##  3 Ivory Coast            0       98    0.
##  4 Macedonia              0       92    0.
##  5 Bosnia-Herzegovina     0       81    0.
##  6 Cape Verde             0       45    0.
##  7 Burma                  0       36    0.
##  8 Curacao                0       22    0.
##  9 Martinique             0       22    0.
## 10 Guadeloupe             0       17    0.
## # ... with 20 more rows

So - there are only 30 countries that don’t match at all. Most of those are really small countries, or countries that have changed names. China is a weird one to be missing. Let’s see what we can find in the FIFA data set.

fifa_dat %>%
  filter(str_detect(Team, "China"))

## # A tibble: 230 x 4
##     year month Team       Pts
##    <dbl> <dbl> <chr>    <int>
##  1 1999.    1. China PR   513
##  2 1999.    2. China PR   511
##  3 1999.    3. China PR   510
##  4 1999.    4. China PR   509
##  5 1999.    5. China PR   507
##  6 1999.    6. China PR   505
##  7 1999.    7. China PR   502
##  8 1999.    8. China PR   499
##  9 1999.    9. China PR   497
## 10 1999.   10. China PR   494
## # ... with 220 more rows

betfair_dat %>%
  filter(str_detect(team_1, "China"))

## # A tibble: 140 x 14
##    date       team_1 team_2    team_1_goals team_2_goals tournament       
##    <date>     <chr>  <chr>            <int>        <int> <chr>            
##  1 2002-06-04 China  Costa Ri…            0            2 World Cup 2002   
##  2 2003-02-12 China  Brazil               0            0 Friendly         
##  3 2003-08-20 China  Chile                0            0 Friendly         
##  4 2004-06-01 China  Hungary              2            1 Friendly         
##  5 2004-06-09 China  Malaysia             4            0 World Cup 2006 Q…
##  6 2004-07-17 China  Bahrain              2            2 Asian Cup 2004   
##  7 2004-07-21 China  Indonesia            5            0 Asian Cup 2004   
##  8 2004-07-25 China  Qatar                1            0 Asian Cup 2004   
##  9 2004-07-30 China  Iraq                 3            0 Asian Cup 2004   
## 10 2004-08-03 China  Iran                 1            1 Asian Cup 2004   
## # ... with 130 more rows, and 8 more variables: is_team_1_home <lgl>,
## #   is_team_2_home <lgl>, is_neutral <lgl>, team_1_betfair_odds <dbl>,
## #   draw_betfair_odds <dbl>, team_2_betfair_odds <dbl>, year <dbl>,
## #   month <dbl>

fifa_dat %>%
  filter(str_detect(Team, "Ireland"))

## # A tibble: 450 x 4
##     year month Team                  Pts
##    <dbl> <dbl> <chr>               <int>
##  1 1999.    1. Republic of Ireland   535
##  2 1999.    1. Northern Ireland      467
##  3 1999.    2. Republic of Ireland   550
##  4 1999.    2. Northern Ireland      465
##  5 1999.    3. Republic of Ireland   547
##  6 1999.    3. Northern Ireland      463
##  7 1999.    4. Republic of Ireland   540
##  8 1999.    4. Northern Ireland      459
##  9 1999.    5. Republic of Ireland   557
## 10 1999.    5. Northern Ireland      455
## # ... with 440 more rows

betfair_dat %>%
  filter(str_detect(team_1, "Ireland"))

## # A tibble: 204 x 14
##    date       team_1  team_2    team_1_goals team_2_goals tournament      
##    <date>     <chr>   <chr>            <int>        <int> <chr>           
##  1 2001-06-02 Ireland Portugal             1            1 World Cup 2002 …
##  2 2001-11-10 Ireland Iran                 2            0 World Cup 2002 …
##  3 2002-04-17 Ireland USA                  2            1 Friendly        
##  4 2002-06-01 Ireland Cameroon             1            1 World Cup 2002  
##  5 2003-06-07 Ireland Albania              2            1 Euro 2004 Quali…
##  6 2003-09-06 Ireland Russia               1            1 Euro 2004 Quali…
##  7 2004-02-18 Ireland Brazil               0            0 Friendly        
##  8 2004-03-31 Ireland Czech Re…            2            1 Friendly        
##  9 2004-05-27 Ireland Romania              1            0 Friendly        
## 10 2004-05-29 Ireland Nigeria              0            3 Friendly        
## # ... with 194 more rows, and 8 more variables: is_team_1_home <lgl>,
## #   is_team_2_home <lgl>, is_neutral <lgl>, team_1_betfair_odds <dbl>,
## #   draw_betfair_odds <dbl>, team_2_betfair_odds <dbl>, year <dbl>,
## #   month <dbl>
…
