…
dat %>%
  filter(tournament_cat == "World Cup") %>%
  select(date, team_1, team_2, team_1_fifa, team_2_fifa)

## # A tibble: 256 x 5
##    date       team_1    team_2       team_1_fifa team_2_fifa
##    <date>     <chr>     <chr>              <int>       <int>
##  1 2002-05-31 France    Senegal              802         599
##  2 2002-06-01 Germany   Saudi Arabia          NA          NA
##  3 2002-06-01 Ireland   Cameroon              NA          NA
##  4 2002-06-01 Uruguay   Denmark               NA          NA
##  5 2002-06-02 Argentina Nigeria               NA          NA
##  6 2002-06-02 England   Sweden                NA          NA
##  7 2002-06-02 Paraguay  South Africa          NA          NA
##  8 2002-06-02 Spain     Slovenia              NA          NA
##  9 2002-06-03 Brazil    Turkey                NA          NA
## 10 2002-06-03 Croatia   Mexico                NA          NA
## # ... with 246 more rows
…
