…
predictions

## # A tibble: 91 x 9
##    Day   Time   Round.Number Venue Home.Team Away.Team Prediction Probability
##    <chr> <time>        <dbl> <chr> <chr>     <chr>          <dbl>       <dbl>
##  1 Wed,… 00'00"            9 Carr… Footscray Richmond        -1.9       0.481
##  2 Thu,… 00'00"            9 Pert… Carlton   Hawthorn        -0.9       0.491
##  3 Thu,… 00'00"            9 Gabba Melbourne Port Ade…       -4         0.46 
##  4 Fri,… 00'00"            9 Carr… Essendon  Brisbane…       -9.6       0.405
##  5 Sat,… 00'00"            9 Carr… North Me… Adelaide         9.3       0.592
##  6 Sat,… 00'00"            9 Gabba St Kilda  Sydney          11.1       0.609
##  7 Sat,… 00'00"            9 Pert… West Coa… Geelong          0.9       0.509
##  8 Sun,… 00'00"            9 Carr… Gold Coa… GWS             -3         0.47 
##  9 Sun,… 00'00"            9 Pert… Fremantle Collingw…       -6.1       0.439
## 10 Mon,… 00'00"            9 Adel… Port Ade… Footscray       16.1       0.656
## # … with 81 more rows, and 1 more variable: Result <chr>
…
