…
# Calculate if a player is a recruit
player_stats <- player_stats %>%
  group_by(ID) %>%
  mutate(Opponent = ifelse(Playing.for == Home.team, Away.team, Home.team),
         Debut_club = first(Playing.for),
         Recruit = Debut_club != Playing.for) %>%
  select(Season, Round, Date, ID, First.name, Surname, Playing.for, Opponent, Debut_club, Recruit) 

Let’s take a quick look at recent recruits

player_stats %>%
  arrange(desc(Date)) %>%
  filter(Recruit)

## # A tibble: 90,971 x 10
## # Groups:   ID [2,722]
##    Season Round Date          ID First.name Surname Playing.for Opponent
##     <dbl> <chr> <date>     <dbl> <chr>      <chr>   <chr>       <chr>   
##  1   2020 6     2020-07-12 12477 Ryan       Burton  Port Adela… Greater…
##  2   2020 6     2020-07-12 11914 Charlie    Dixon   Port Adela… Greater…
##  3   2020 6     2020-07-12 11639 Brad       Ebert   Port Adela… Greater…
##  4   2020 6     2020-07-12 11994 Scott      Lycett  Port Adela… Greater…
##  5   2020 6     2020-07-12 11912 Trent      McKenz… Port Adela… Greater…
##  6   2020 6     2020-07-12 11818 Steven     Motlop  Port Adela… Greater…
##  7   2020 6     2020-07-12 12104 Cameron    Sutcli… Port Adela… Greater…
##  8   2020 6     2020-07-12 11825 Phil       Davis   Greater We… Port Ad…
##  9   2020 6     2020-07-12 11746 Matthew    de Boer Greater We… Port Ad…
## 10   2020 6     2020-07-12 11991 Lachlan    Keeffe  Greater We… Port Ad…
## # … with 90,961 more rows, and 2 more variables: Debut_club <chr>,
## #   Recruit <lgl>
…
