…
The main changes are below. For further details have aread through the pkgdown site.

Highlights

New family of fetch_* functions

This new family of functions provides a simple and consistent API to the common types of AFL data. It also allows you to use the same interface to access data from any data source, meaning that it should require much less effort to switch between data sources or start a new analysis.

The basic structure of the fetch_* functions is that you specify the season, round_number, source and comp. Some examples are below but read through the extensive Main Fetch Functions vignette for a detailed run through.

An example with the fixture dataset.

fetch_fixture(season = 2021, source = "AFL", comp = "AFLM")

## # A tibble: 198 x 47
##       id providerId   utcStartTime       status  compSeason.id compSeason.provi…
##    <int> <chr>        <chr>              <chr>           <int> <chr>            
##  1  2991 CD_M2021014… 2021-03-18T08:25:… SCHEDU…            34 CD_S2021014      
##  2  2986 CD_M2021014… 2021-03-19T08:50:… SCHEDU…            34 CD_S2021014      
##  3  2992 CD_M2021014… 2021-03-20T02:45:… SCHEDU…            34 CD_S2021014      
##  4  2993 CD_M2021014… 2021-03-20T05:35:… SCHEDU…            34 CD_S2021014      
##  5  2994 CD_M2021014… 2021-03-20T08:25:… SCHEDU…            34 CD_S2021014      
##  6  2987 CD_M2021014… 2021-03-20T08:45:… SCHEDU…            34 CD_S2021014      
##  7  2990 CD_M2021014… 2021-03-21T02:10:… SCHEDU…            34 CD_S2021014      
##  8  2989 CD_M2021014… 2021-03-21T04:20:… SCHEDU…            34 CD_S2021014      
##  9  2988 CD_M2021014… 2021-03-21T07:10:… SCHEDU…            34 CD_S2021014      
## 10  2999 CD_M2021014… 2021-03-25T08:20:… SCHEDU…            34 CD_S2021014      
## # … with 188 more rows, and 41 more variables: compSeason.name <chr>,
## #   compSeason.shortName <chr>, compSeason.currentRoundNumber <int>,
## #   round.id <int>, round.providerId <chr>, round.abbreviation <chr>,
## #   round.name <chr>, round.roundNumber <int>, round.byes <list>,
## #   home.team.id <int>, home.team.providerId <chr>, home.team.name <chr>,
## #   home.team.abbreviation <chr>, home.team.nickname <chr>,
## #   home.team.teamType <chr>, home.team.club.id <int>,
## #   home.team.club.providerId <chr>, home.team.club.name <chr>,
## #   home.team.club.abbreviation <chr>, home.team.club.nickname <chr>,
…
The official AFL website has been added as a new data source for fitzRoy. This provides access to official statistics and generally includes a lot more data than other sources. It is the default source in any of the fetch_* family of functions.

Some good examples are shown in the new Getting started vignette

# The following will return the same. 
fetch_results(season = 2021, round_number = 1, source = "AFL", comp = "AFLM")
fetch_results_afl(season = 2021, round_number = 1, comp = "AFLM")

AFLW data

All data from the source “AFL” will also contain AFLW data for the first time. This includes fixtures, results, ladders, lineups and player stats. It is as simple as changing the comp argument to “AFLW” when using any of the fetch_* family of functions.

fetch_player_stats(season = 2021, round_number = 1, source = "AFL", comp = "AFLW")

## # A tibble: 294 x 67
##    providerId  utcStartTime  status compSeason.shor… round.name round.roundNumb…
##    <chr>       <chr>         <chr>  <chr>            <chr>                 <int>
##  1 CD_M202126… 2021-01-28T0… CONCL… 2021 AFL Womens  Round 1                   1
##  2 CD_M202126… 2021-01-28T0… CONCL… 2021 AFL Womens  Round 1                   1
##  3 CD_M202126… 2021-01-28T0… CONCL… 2021 AFL Womens  Round 1                   1
##  4 CD_M202126… 2021-01-28T0… CONCL… 2021 AFL Womens  Round 1                   1
##  5 CD_M202126… 2021-01-28T0… CONCL… 2021 AFL Womens  Round 1                   1
##  6 CD_M202126… 2021-01-28T0… CONCL… 2021 AFL Womens  Round 1                   1
##  7 CD_M202126… 2021-01-28T0… CONCL… 2021 AFL Womens  Round 1                   1
##  8 CD_M202126… 2021-01-28T0… CONCL… 2021 AFL Womens  Round 1                   1
##  9 CD_M202126… 2021-01-28T0… CONCL… 2021 AFL Womens  Round 1                   1
## 10 CD_M202126… 2021-01-28T0… CONCL… 2021 AFL Womens  Round 1                   1
## # … with 284 more rows, and 61 more variables: venue.name <chr>,
## #   home.team.club.name <chr>, away.team.club.name <chr>,
## #   player.jumperNumber <int>, player.photoURL <chr>,
## #   player.player.position <chr>, player.player.player.playerId <chr>,
## #   player.player.player.captain <lgl>,
## #   player.player.player.playerJumperNumber <int>,
## #   player.player.player.givenName <chr>, player.player.player.surname <chr>,
## #   teamId <chr>, gamesPlayed <lgl>, timeOnGroundPercentage <dbl>, goals <dbl>,
## #   behinds <dbl>, superGoals <lgl>, kicks <dbl>, handballs <dbl>,
…
