…
“VFL”

“VFLW”

“WAFL”

“U18B”

“U18G”

You will have to experiment with which dates, rounds and comps work for various functions but the API should at least return a NULL value or warning if no data exists. You will also note that not all data exists, particularly advanced statistics. Please note this feature is experimental and will be improved over time.

fetch_fixture(2022, source = "AFL", comp = "VFL")

## # A tibble: 198 × 53
##       id provid…¹ utcSt…² status compS…³ compS…⁴ compS…⁵ compS…⁶ compS…⁷ round…⁸
##    <int> <chr>    <chr>   <chr>    <int> <chr>   <chr>   <chr>     <int>   <int>
##  1  4348 CD_M202… 2022-0… CONCL…      47 CD_S20… 2022 V… 2022 V…      26     637
##  2  4347 CD_M202… 2022-0… CONCL…      47 CD_S20… 2022 V… 2022 V…      26     637
##  3  4350 CD_M202… 2022-0… CONCL…      47 CD_S20… 2022 V… 2022 V…      26     637
##  4  4349 CD_M202… 2022-0… CONCL…      47 CD_S20… 2022 V… 2022 V…      26     637
##  5  4162 CD_M202… 2022-0… CONCL…      47 CD_S20… 2022 V… 2022 V…      26     637
##  6  4164 CD_M202… 2022-0… CONCL…      47 CD_S20… 2022 V… 2022 V…      26     637
##  7  4163 CD_M202… 2022-0… CONCL…      47 CD_S20… 2022 V… 2022 V…      26     637
##  8  4167 CD_M202… 2022-0… CONCL…      47 CD_S20… 2022 V… 2022 V…      26     637
##  9  4165 CD_M202… 2022-0… CONCL…      47 CD_S20… 2022 V… 2022 V…      26     637
## 10  4168 CD_M202… 2022-0… CONCL…      47 CD_S20… 2022 V… 2022 V…      26     637
## # … with 188 more rows, 43 more variables: round.providerId <chr>,
## #   round.abbreviation <chr>, round.name <chr>, round.roundNumber <int>,
## #   round.byes <list>, home.team.id <int>, home.team.providerId <chr>,
## #   home.team.name <chr>, home.team.abbreviation <chr>,
## #   home.team.nickname <chr>, home.team.teamType <chr>,
## #   home.team.club.id <int>, home.team.club.providerId <chr>,
## #   home.team.club.name <chr>, home.team.club.abbreviation <chr>, …
## # ℹ Use `print(n = ...)` to see more rows, and `colnames()` to see all variable names

fetch_player_stats(2022, round = 1, source = "AFL", comp = "VFLW")

## # A tibble: 252 × 70
##    providerId     utcSt…¹ status compS…² round…³ round…⁴ venue…⁵ home.…⁶ home.…⁷
##    <chr>          <chr>   <chr>  <chr>   <chr>     <int> <chr>   <chr>   <chr>  
##  1 CD_M202246401… 2022-0… CONCL… 2022 V… Round 1       1 Casey … Casey … Melbou…
##  2 CD_M202246401… 2022-0… CONCL… 2022 V… Round 1       1 Casey … Casey … Melbou…
##  3 CD_M202246401… 2022-0… CONCL… 2022 V… Round 1       1 Casey … Casey … Melbou…
##  4 CD_M202246401… 2022-0… CONCL… 2022 V… Round 1       1 Casey … Casey … Melbou…
##  5 CD_M202246401… 2022-0… CONCL… 2022 V… Round 1       1 Casey … Casey … Melbou…
##  6 CD_M202246401… 2022-0… CONCL… 2022 V… Round 1       1 Casey … Casey … Melbou…
##  7 CD_M202246401… 2022-0… CONCL… 2022 V… Round 1       1 Casey … Casey … Melbou…
##  8 CD_M202246401… 2022-0… CONCL… 2022 V… Round 1       1 Casey … Casey … Melbou…
##  9 CD_M202246401… 2022-0… CONCL… 2022 V… Round 1       1 Casey … Casey … Melbou…
## 10 CD_M202246401… 2022-0… CONCL… 2022 V… Round 1       1 Casey … Casey … Melbou…
## # … with 242 more rows, 61 more variables: away.team.name <chr>,
## #   away.team.club.name <chr>, player.jumperNumber <int>,
## #   player.photoURL <chr>, player.player.position <chr>,
## #   player.player.player.playerId <chr>, player.player.player.captain <lgl>,
## #   player.player.player.playerJumperNumber <int>,
## #   player.player.player.givenName <chr>, player.player.player.surname <chr>,
## #   teamId <chr>, gamesPlayed <lgl>, timeOnGroundPercentage <lgl>, …
## # ℹ Use `print(n = ...)` to see more rows, and `colnames()` to see all variable names

fetch_fixture(2022, source = "AFL", comp = "WAFL")

## # A tibble: 96 × 53
##       id provid…¹ utcSt…² status compS…³ compS…⁴ compS…⁵ compS…⁶ compS…⁷ round…⁸
##    <int> <chr>    <chr>   <chr>    <int> <chr>   <chr>   <chr>     <int>   <int>
##  1  4458 CD_M202… 2022-0… CONCL…      49 CD_S20… 2022 W… 2022 W…      24     681
##  2  4457 CD_M202… 2022-0… CONCL…      49 CD_S20… 2022 W… 2022 W…      24     681
##  3  4459 CD_M202… 2022-0… CONCL…      49 CD_S20… 2022 W… 2022 W…      24     681
##  4  4460 CD_M202… 2022-0… CONCL…      49 CD_S20… 2022 W… 2022 W…      24     681
##  5  4461 CD_M202… 2022-0… CONCL…      49 CD_S20… 2022 W… 2022 W…      24     681
##  6  4462 CD_M202… 2022-0… CONCL…      49 CD_S20… 2022 W… 2022 W…      24     682
##  7  4463 CD_M202… 2022-0… CONCL…      49 CD_S20… 2022 W… 2022 W…      24     682
##  8  4464 CD_M202… 2022-0… CONCL…      49 CD_S20… 2022 W… 2022 W…      24     682
##  9  4465 CD_M202… 2022-0… CONCL…      49 CD_S20… 2022 W… 2022 W…      24     682
## 10  4466 CD_M202… 2022-0… CONCL…      49 CD_S20… 2022 W… 2022 W…      24     682
## # … with 86 more rows, 43 more variables: round.providerId <chr>,
## #   round.abbreviation <chr>, round.name <chr>, round.roundNumber <int>,
## #   round.byes <list>, home.team.id <int>, home.team.providerId <chr>,
## #   home.team.name <chr>, home.team.abbreviation <chr>,
## #   home.team.nickname <chr>, home.team.teamType <chr>,
## #   home.team.club.id <int>, home.team.club.providerId <chr>,
## #   home.team.club.name <chr>, home.team.club.abbreviation <chr>, …
## # ℹ Use `print(n = ...)` to see more rows, and `colnames()` to see all variable names
…
