fitzRoy - 0.1.5 release
…
Note that each row is a ‘player match’ so the first few columns are just repeated team level data. It is probably more intersting to look at specific columns relating to player stats.

dat %>% 
  select(Date, First.name, Surname, Playing.for, Contested.Possessions, 
         Uncontested.Possessions, One.Percenters, Time.on.Ground.., 
         Brownlow.Votes)

## # A tibble: 7,656 x 9
##    Date       First.name Surname  Playing.for Contested.Possessions
##    <date>     <chr>      <chr>    <chr>                       <dbl>
##  1 2018-03-22 David      Astbury  Richmond                       9.
##  2 2018-03-22 Shai       Bolton   Richmond                       3.
##  3 2018-03-22 Dan        Butler   Richmond                       7.
##  4 2018-03-22 Josh       Caddy    Richmond                      11.
##  5 2018-03-22 Jason      Castagna Richmond                       7.
##  6 2018-03-22 Reece      Conca    Richmond                       6.
##  7 2018-03-22 Trent      Cotchin  Richmond                      13.
##  8 2018-03-22 Shane      Edwards  Richmond                       9.
##  9 2018-03-22 Brandon    Ellis    Richmond                       3.
## 10 2018-03-22 Corey      Ellis    Richmond                       7.
## # ... with 7,646 more rows, and 4 more variables:
## #   Uncontested.Possessions <dbl>, One.Percenters <dbl>,
## #   Time.on.Ground.. <int>, Brownlow.Votes <dbl>
…
